{
  "categories": [
    {
      "id": 1000,
      "name": "Бытовая техника",
      "parent": 0
    },
    {
      "id": 1001,
      "name": "Электроплиты",
      "parent": 1000
    },
    {
      "id": 1002,
      "name": "Комбайны",
      "parent": 1001
    },
    {
      "id": 1003,
      "name": "Электрочайники",
      "parent": 1000
    },
    {
      "id": 1004,
      "name": "Холодильники",
      "parent": 1000
    },
    {
      "id": 2000,
      "name": "Электроника",
      "parent": 0
    },
    {
      "id": 2001,
      "name": "Мобильные телефоны",
      "parent": 2000
    },
    {
      "id": 2002,
      "name": "Телефон-факсы",
      "parent": 2000
    },
    {
      "id": 2003,
      "name": "Фотоаппараты",
      "parent": 2000
    },
    {
      "id": 2004,
      "name": "Фоторамки",
      "parent": 2000
    },
    {
      "id": 3000,
      "name": "Детские товары",
      "parent": 0
    },
    {
      "id": 3001,
      "name": "Автокресла",
      "parent": 3000
    },
    {
      "id": 3002,
      "name": "Коляски",
      "parent": 3000
    },
    {
      "id": 3003,
      "name": "Манежи",
      "parent": 3000
    },
    {
      "id": 3004,
      "name": "Другое",
      "parent": 3000
    }
  ]
}